%YAML 1.1
%TAG !u! tag:unity3d.com,2011:
--- !u!114 &11400000
MonoBehaviour:
  m_ObjectHideFlags: 0
  m_CorrespondingSourceObject: {fileID: 0}
  m_PrefabInstance: {fileID: 0}
  m_PrefabAsset: {fileID: 0}
  m_GameObject: {fileID: 0}
  m_Enabled: 1
  m_EditorHideFlags: 0
  m_Script: {fileID: 11500000, guid: 763ee49da2ed9b74bb87659b7f3d8452, type: 3}
  m_Name: DefaultMidiTrackMapping 2
  m_EditorClassIdentifier: 
  referenceRootOctave: 4
  ignoreOctave: 0
  mapping:
  - noteTarget: 0
    noteOctave: 6
  - noteTarget: 2
    noteOctave: 6
  - noteTarget: 4
    noteOctave: 6
  - noteTarget: 5
    noteOctave: 6
  - noteTarget: 7
    noteOctave: 6
  - noteTarget: 9
    noteOctave: 6
  - noteTarget: 11
    noteOctave: 6
  - noteTarget: 0
    noteOctave: 5
  - noteTarget: 2
    noteOctave: 5
  - noteTarget: 4
    noteOctave: 5
  - noteTarget: 5
    noteOctave: 5
  - noteTarget: 7
    noteOctave: 5
  - noteTarget: 9
    noteOctave: 5
  - noteTarget: 11
    noteOctave: 5
