{
    "name": "Vk",
    "maps": [
        {
            "name": "Primary",
            "id": "c505b32c-1e23-4706-9ac6-539a712b4755",
            "actions": [
                {
                    "name": "C",
                    "type": "Button",
                    "id": "8b451526-6c7b-4f74-b8e0-0dae4f1ccd70",
                    "expectedControlType": "Button",
                    "processors": "",
                    "interactions": "",
                    "initialStateCheck": false
                },
                {
                    "name": "C#",
                    "type": "Button",
                    "id": "b7c4c18b-b175-430b-8b7b-09733030733b",
                    "expectedControlType": "Button",
                    "processors": "",
                    "interactions": "",
                    "initialStateCheck": false
                }
            ],
            "bindings": [
                {
                    "name": "",
                    "id": "90af2d7f-56dc-41b6-b37d-85437eba9bd9",
                    "path": "<MidiDevice>/note036",
                    "interactions": "",
                    "processors": "",
                    "groups": "",
                    "action": "C",
                    "isComposite": false,
                    "isPartOfComposite": false
                },
                {
                    "name": "",
                    "id": "abe0ce66-eddc-4437-b1f9-a1b9e8bb1306",
                    "path": "<MidiDevice>/note037",
                    "interactions": "",
                    "processors": "",
                    "groups": "",
                    "action": "C#",
                    "isComposite": false,
                    "isPartOfComposite": false
                }
            ]
        }
    ],
    "controlSchemes": []
}