%YAML 1.1
%TAG !u! tag:unity3d.com,2011:
--- !u!114 &11400000
MonoBehaviour:
  m_ObjectHideFlags: 0
  m_CorrespondingSourceObject: {fileID: 0}
  m_PrefabInstance: {fileID: 0}
  m_PrefabAsset: {fileID: 0}
  m_GameObject: {fileID: 0}
  m_Enabled: 1
  m_EditorHideFlags: 0
  m_Script: {fileID: 11500000, guid: 5c9aee7e548d5de44a366308702e981a, type: 3}
  m_Name: 105
  m_EditorClassIdentifier: 
  clip: {fileID: 8300000, guid: 5b1f5ccead13ca440a2315b5e4372ead, type: 3}
  author: 105
  bpm: 110
  metadata:
    values: []
  useCurrentBpmMidiImport: 0
  notes:
  - noteName: 0
    noteOctave: 1
    time: 0
    noteLength: 0.136364
    beatIndex: 0
    beatLengthIndex: 0.25
  - noteName: 0
    noteOctave: 1
    time: 0
    noteLength: 0.136364
    beatIndex: 0
    beatLengthIndex: 0.25
  - noteName: 0
    noteOctave: 1
    time: 0.272727
    noteLength: 0.136364
    beatIndex: 0.5
    beatLengthIndex: 0.25
  - noteName: 0
    noteOctave: 1
    time: 0.272727
    noteLength: 0.136364
    beatIndex: 0.5
    beatLengthIndex: 0.25
  - noteName: 0
    noteOctave: 1
    time: 0.545454
    noteLength: 0.136364
    beatIndex: 1
    beatLengthIndex: 0.25
  - noteName: 0
    noteOctave: 1
    time: 0.545454
    noteLength: 0.136364
    beatIndex: 1
    beatLengthIndex: 0.25
  - noteName: 0
    noteOctave: 1
    time: 0.818181
    noteLength: 0.136364
    beatIndex: 1.5
    beatLengthIndex: 0.25
  - noteName: 0
    noteOctave: 1
    time: 0.818181
    noteLength: 0.136364
    beatIndex: 1.5
    beatLengthIndex: 0.25
  - noteName: 0
    noteOctave: 1
    time: 1.090908
    noteLength: 0.136364
    beatIndex: 2
    beatLengthIndex: 0.25
  - noteName: 0
    noteOctave: 1
    time: 1.090908
    noteLength: 0.136364
    beatIndex: 2
    beatLengthIndex: 0.25
  - noteName: 1
    noteOctave: 1
    time: 1.636362
    noteLength: 0.136364
    beatIndex: 3
    beatLengthIndex: 0.25
  - noteName: 1
    noteOctave: 1
    time: 1.909089
    noteLength: 0.136364
    beatIndex: 3.5
    beatLengthIndex: 0.25
  - noteName: 1
    noteOctave: 1
    time: 2.181816
    noteLength: 0.136364
    beatIndex: 4
    beatLengthIndex: 0.25
  - noteName: 1
    noteOctave: 1
    time: 2.454543
    noteLength: 0.136364
    beatIndex: 4.5
    beatLengthIndex: 0.25
  - noteName: 1
    noteOctave: 1
    time: 2.72727
    noteLength: 0.136364
    beatIndex: 5
    beatLengthIndex: 0.25
  - noteName: 2
    noteOctave: 1
    time: 3.272724
    noteLength: 0.136364
    beatIndex: 6
    beatLengthIndex: 0.25
  - noteName: 2
    noteOctave: 1
    time: 3.545451
    noteLength: 0.136364
    beatIndex: 6.5
    beatLengthIndex: 0.25
  - noteName: 2
    noteOctave: 1
    time: 3.818178
    noteLength: 0.136364
    beatIndex: 7
    beatLengthIndex: 0.25
  - noteName: 2
    noteOctave: 1
    time: 4.090905
    noteLength: 0.136364
    beatIndex: 7.5
    beatLengthIndex: 0.25
  - noteName: 2
    noteOctave: 1
    time: 4.363632
    noteLength: 0.136364
    beatIndex: 8
    beatLengthIndex: 0.25
  - noteName: 3
    noteOctave: 1
    time: 4.909086
    noteLength: 0.136364
    beatIndex: 9
    beatLengthIndex: 0.25
  - noteName: 3
    noteOctave: 1
    time: 5.181813
    noteLength: 0.136364
    beatIndex: 9.5
    beatLengthIndex: 0.25
  - noteName: 3
    noteOctave: 1
    time: 5.45454
    noteLength: 0.136364
    beatIndex: 10
    beatLengthIndex: 0.25
  - noteName: 3
    noteOctave: 1
    time: 5.727267
    noteLength: 0.136364
    beatIndex: 10.5
    beatLengthIndex: 0.25
  - noteName: 3
    noteOctave: 1
    time: 5.999994
    noteLength: 0.136364
    beatIndex: 11
    beatLengthIndex: 0.25
  - noteName: 4
    noteOctave: 1
    time: 6.545448
    noteLength: 0.136364
    beatIndex: 12
    beatLengthIndex: 0.25
  - noteName: 4
    noteOctave: 1
    time: 6.818175
    noteLength: 0.136364
    beatIndex: 12.5
    beatLengthIndex: 0.25
  - noteName: 4
    noteOctave: 1
    time: 7.090902
    noteLength: 0.136364
    beatIndex: 13
    beatLengthIndex: 0.25
  - noteName: 4
    noteOctave: 1
    time: 7.363629
    noteLength: 0.136364
    beatIndex: 13.5
    beatLengthIndex: 0.25
  - noteName: 4
    noteOctave: 1
    time: 7.636356
    noteLength: 0.136364
    beatIndex: 14
    beatLengthIndex: 0.25
  - noteName: 5
    noteOctave: 1
    time: 8.18181
    noteLength: 0.136364
    beatIndex: 15
    beatLengthIndex: 0.25
  - noteName: 5
    noteOctave: 1
    time: 8.454537
    noteLength: 0.136364
    beatIndex: 15.5
    beatLengthIndex: 0.25
  - noteName: 5
    noteOctave: 1
    time: 8.727264
    noteLength: 0.136364
    beatIndex: 16
    beatLengthIndex: 0.25
  - noteName: 5
    noteOctave: 1
    time: 8.999991
    noteLength: 0.136364
    beatIndex: 16.5
    beatLengthIndex: 0.25
  - noteName: 5
    noteOctave: 1
    time: 9.272718
    noteLength: 0.136364
    beatIndex: 17
    beatLengthIndex: 0.25
  - noteName: 6
    noteOctave: 1
    time: 9.818172
    noteLength: 0.136364
    beatIndex: 18
    beatLengthIndex: 0.25
  - noteName: 6
    noteOctave: 1
    time: 10.090899
    noteLength: 0.136364
    beatIndex: 18.5
    beatLengthIndex: 0.25
  - noteName: 6
    noteOctave: 1
    time: 10.363626
    noteLength: 0.136364
    beatIndex: 19
    beatLengthIndex: 0.25
  - noteName: 6
    noteOctave: 1
    time: 10.636353
    noteLength: 0.136364
    beatIndex: 19.5
    beatLengthIndex: 0.25
  - noteName: 6
    noteOctave: 1
    time: 10.90908
    noteLength: 0.136364
    beatIndex: 20
    beatLengthIndex: 0.25
  - noteName: 7
    noteOctave: 1
    time: 11.454534
    noteLength: 0.136364
    beatIndex: 21
    beatLengthIndex: 0.25
  - noteName: 7
    noteOctave: 1
    time: 11.727261
    noteLength: 0.136364
    beatIndex: 21.5
    beatLengthIndex: 0.25
  - noteName: 7
    noteOctave: 1
    time: 11.999988
    noteLength: 0.136364
    beatIndex: 22
    beatLengthIndex: 0.25
  - noteName: 7
    noteOctave: 1
    time: 12.272715
    noteLength: 0.136364
    beatIndex: 22.5
    beatLengthIndex: 0.25
  - noteName: 7
    noteOctave: 1
    time: 12.545442
    noteLength: 0.136364
    beatIndex: 23
    beatLengthIndex: 0.25
  - noteName: 8
    noteOctave: 1
    time: 13.090896
    noteLength: 0.136364
    beatIndex: 24
    beatLengthIndex: 0.25
  - noteName: 8
    noteOctave: 1
    time: 13.363623
    noteLength: 0.136364
    beatIndex: 24.5
    beatLengthIndex: 0.25
  - noteName: 8
    noteOctave: 1
    time: 13.63635
    noteLength: 0.136364
    beatIndex: 25
    beatLengthIndex: 0.25
  - noteName: 8
    noteOctave: 1
    time: 13.909077
    noteLength: 0.136364
    beatIndex: 25.5
    beatLengthIndex: 0.25
  - noteName: 8
    noteOctave: 1
    time: 14.181804
    noteLength: 0.136364
    beatIndex: 26
    beatLengthIndex: 0.25
  - noteName: 9
    noteOctave: 1
    time: 14.727258
    noteLength: 0.136364
    beatIndex: 27
    beatLengthIndex: 0.25
  - noteName: 9
    noteOctave: 1
    time: 14.999985
    noteLength: 0.136364
    beatIndex: 27.5
    beatLengthIndex: 0.25
  - noteName: 9
    noteOctave: 1
    time: 15.272712
    noteLength: 0.136364
    beatIndex: 28
    beatLengthIndex: 0.25
  - noteName: 9
    noteOctave: 1
    time: 15.545439
    noteLength: 0.136364
    beatIndex: 28.5
    beatLengthIndex: 0.25
  - noteName: 9
    noteOctave: 1
    time: 15.818166
    noteLength: 0.136364
    beatIndex: 29
    beatLengthIndex: 0.25
  - noteName: 10
    noteOctave: 1
    time: 16.36362
    noteLength: 0.136364
    beatIndex: 30
    beatLengthIndex: 0.25
  - noteName: 10
    noteOctave: 1
    time: 16.636347
    noteLength: 0.136364
    beatIndex: 30.5
    beatLengthIndex: 0.25
  - noteName: 10
    noteOctave: 1
    time: 16.909075
    noteLength: 0.136364
    beatIndex: 31
    beatLengthIndex: 0.25
  - noteName: 10
    noteOctave: 1
    time: 17.1818
    noteLength: 0.136364
    beatIndex: 31.5
    beatLengthIndex: 0.25
  - noteName: 10
    noteOctave: 1
    time: 17.454529
    noteLength: 0.136364
    beatIndex: 32
    beatLengthIndex: 0.25
  - noteName: 11
    noteOctave: 1
    time: 17.999983
    noteLength: 0.136364
    beatIndex: 33
    beatLengthIndex: 0.25
  - noteName: 11
    noteOctave: 1
    time: 18.272709
    noteLength: 0.136364
    beatIndex: 33.5
    beatLengthIndex: 0.25
  - noteName: 11
    noteOctave: 1
    time: 18.545437
    noteLength: 0.136364
    beatIndex: 34
    beatLengthIndex: 0.25
  - noteName: 11
    noteOctave: 1
    time: 18.818165
    noteLength: 0.136364
    beatIndex: 34.5
    beatLengthIndex: 0.25
  - noteName: 11
    noteOctave: 1
    time: 19.09089
    noteLength: 0.136364
    beatIndex: 35
    beatLengthIndex: 0.25
  - noteName: 0
    noteOctave: 5
    time: 1.3636364
    noteLength: 0.8181818
    beatIndex: 2.5
    beatLengthIndex: 1.5
  - noteName: 1
    noteOctave: 5
    time: 3
    noteLength: 0.8181818
    beatIndex: 5.5
    beatLengthIndex: 1.5
  - noteName: 2
    noteOctave: 5
    time: 4.6363635
    noteLength: 0.8181818
    beatIndex: 8.5
    beatLengthIndex: 1.5
  - noteName: 3
    noteOctave: 5
    time: 6.2727275
    noteLength: 0.8181818
    beatIndex: 11.5
    beatLengthIndex: 1.5
  - noteName: 4
    noteOctave: 5
    time: 7.909091
    noteLength: 0.8181818
    beatIndex: 14.5
    beatLengthIndex: 1.5
  - noteName: 5
    noteOctave: 5
    time: 9.545455
    noteLength: 0.8181818
    beatIndex: 17.5
    beatLengthIndex: 1.5
  - noteName: 6
    noteOctave: 5
    time: 11.181818
    noteLength: 0.8181818
    beatIndex: 20.5
    beatLengthIndex: 1.5
  - noteName: 7
    noteOctave: 5
    time: 12.818182
    noteLength: 0.8181818
    beatIndex: 23.5
    beatLengthIndex: 1.5
  - noteName: 8
    noteOctave: 5
    time: 14.454545
    noteLength: 0.8181818
    beatIndex: 26.5
    beatLengthIndex: 1.5
  - noteName: 9
    noteOctave: 5
    time: 16.09091
    noteLength: 0.8181818
    beatIndex: 29.5
    beatLengthIndex: 1.5
  - noteName: 10
    noteOctave: 5
    time: 17.727272
    noteLength: 0.8181818
    beatIndex: 32.5
    beatLengthIndex: 1.5
  - noteName: 11
    noteOctave: 5
    time: 19.363636
    noteLength: 0.8181818
    beatIndex: 35.5
    beatLengthIndex: 1.5
  useGenetator: 0
  runtimeGenerate: 0
  generator: {fileID: 0}
  onsetSensitivity: 1
  onsetData: []
  onsetMin: 0
  onsetMax: 0
