%YAML 1.1
%TAG !u! tag:unity3d.com,2011:
--- !u!1 &4365014475439484558
GameObject:
  m_ObjectHideFlags: 0
  m_CorrespondingSourceObject: {fileID: 0}
  m_PrefabInstance: {fileID: 0}
  m_PrefabAsset: {fileID: 0}
  serializedVersion: 6
  m_Component:
  - component: {fileID: 3397604959802415927}
  - component: {fileID: 990401417384142256}
  m_Layer: 0
  m_Name: Arrow
  m_TagString: Untagged
  m_Icon: {fileID: 0}
  m_NavMeshLayer: 0
  m_StaticEditorFlags: 0
  m_IsActive: 1
--- !u!4 &3397604959802415927
Transform:
  m_ObjectHideFlags: 0
  m_CorrespondingSourceObject: {fileID: 0}
  m_PrefabInstance: {fileID: 0}
  m_PrefabAsset: {fileID: 0}
  m_GameObject: {fileID: 4365014475439484558}
  m_LocalRotation: {x: 0, y: 0, z: 0, w: 1}
  m_LocalPosition: {x: -0.189, y: 0, z: 0}
  m_LocalScale: {x: 1, y: 1, z: 1}
  m_ConstrainProportionsScale: 0
  m_Children: []
  m_Father: {fileID: 7212494586997379937}
  m_RootOrder: 5
  m_LocalEulerAnglesHint: {x: 0, y: 0, z: 0}
--- !u!212 &990401417384142256
SpriteRenderer:
  m_ObjectHideFlags: 0
  m_CorrespondingSourceObject: {fileID: 0}
  m_PrefabInstance: {fileID: 0}
  m_PrefabAsset: {fileID: 0}
  m_GameObject: {fileID: 4365014475439484558}
  m_Enabled: 1
  m_CastShadows: 0
  m_ReceiveShadows: 0
  m_DynamicOccludee: 1
  m_StaticShadowCaster: 0
  m_MotionVectors: 1
  m_LightProbeUsage: 1
  m_ReflectionProbeUsage: 1
  m_RayTracingMode: 0
  m_RayTraceProcedural: 0
  m_RenderingLayerMask: 1
  m_RendererPriority: 0
  m_Materials:
  - {fileID: 10754, guid: 0000000000000000f000000000000000, type: 0}
  m_StaticBatchInfo:
    firstSubMesh: 0
    subMeshCount: 0
  m_StaticBatchRoot: {fileID: 0}
  m_ProbeAnchor: {fileID: 0}
  m_LightProbeVolumeOverride: {fileID: 0}
  m_ScaleInLightmap: 1
  m_ReceiveGI: 1
  m_PreserveUVs: 0
  m_IgnoreNormalsForChartDetection: 0
  m_ImportantGI: 0
  m_StitchLightmapSeams: 1
  m_SelectedEditorRenderState: 0
  m_MinimumChartSize: 4
  m_AutoUVMaxDistance: 0.5
  m_AutoUVMaxAngle: 89
  m_LightmapParameters: {fileID: 0}
  m_SortingLayerID: 0
  m_SortingLayer: 0
  m_SortingOrder: 1
  m_Sprite: {fileID: 21300000, guid: 5140a76ad4084704d9eb6ab2da9312b2, type: 3}
  m_Color: {r: 0.6037736, g: 0.6037736, b: 0.6037736, a: 1}
  m_FlipX: 1
  m_FlipY: 0
  m_DrawMode: 0
  m_Size: {x: 1.4, y: 1.4}
  m_AdaptiveModeThreshold: 0.5
  m_SpriteTileMode: 0
  m_WasSpriteAssigned: 1
  m_MaskInteraction: 0
  m_SpriteSortPoint: 0
--- !u!1001 &1197238477453121156
PrefabInstance:
  m_ObjectHideFlags: 0
  serializedVersion: 2
  m_Modification:
    m_TransformParent: {fileID: 0}
    m_Modifications:
    - target: {fileID: 8397699897526961635, guid: a8bbe05f24310734da5700943f3421a9,
        type: 3}
      propertyPath: m_Name
      value: Note Swipe Left
      objectReference: {fileID: 0}
    - target: {fileID: 8397699897526961636, guid: a8bbe05f24310734da5700943f3421a9,
        type: 3}
      propertyPath: action
      value: 2
      objectReference: {fileID: 0}
    - target: {fileID: 8397699897526961636, guid: a8bbe05f24310734da5700943f3421a9,
        type: 3}
      propertyPath: swipeDirection
      value: 2
      objectReference: {fileID: 0}
    - target: {fileID: 8397699897526961636, guid: a8bbe05f24310734da5700943f3421a9,
        type: 3}
      propertyPath: swipeThreshold
      value: 0.5
      objectReference: {fileID: 0}
    - target: {fileID: 8397699897526961637, guid: a8bbe05f24310734da5700943f3421a9,
        type: 3}
      propertyPath: m_RootOrder
      value: 0
      objectReference: {fileID: 0}
    - target: {fileID: 8397699897526961637, guid: a8bbe05f24310734da5700943f3421a9,
        type: 3}
      propertyPath: m_LocalScale.x
      value: 1
      objectReference: {fileID: 0}
    - target: {fileID: 8397699897526961637, guid: a8bbe05f24310734da5700943f3421a9,
        type: 3}
      propertyPath: m_LocalScale.y
      value: 1
      objectReference: {fileID: 0}
    - target: {fileID: 8397699897526961637, guid: a8bbe05f24310734da5700943f3421a9,
        type: 3}
      propertyPath: m_LocalScale.z
      value: 1
      objectReference: {fileID: 0}
    - target: {fileID: 8397699897526961637, guid: a8bbe05f24310734da5700943f3421a9,
        type: 3}
      propertyPath: m_LocalPosition.x
      value: 1.1645489
      objectReference: {fileID: 0}
    - target: {fileID: 8397699897526961637, guid: a8bbe05f24310734da5700943f3421a9,
        type: 3}
      propertyPath: m_LocalPosition.y
      value: -0.387587
      objectReference: {fileID: 0}
    - target: {fileID: 8397699897526961637, guid: a8bbe05f24310734da5700943f3421a9,
        type: 3}
      propertyPath: m_LocalPosition.z
      value: 0
      objectReference: {fileID: 0}
    - target: {fileID: 8397699897526961637, guid: a8bbe05f24310734da5700943f3421a9,
        type: 3}
      propertyPath: m_LocalRotation.w
      value: 1
      objectReference: {fileID: 0}
    - target: {fileID: 8397699897526961637, guid: a8bbe05f24310734da5700943f3421a9,
        type: 3}
      propertyPath: m_LocalRotation.x
      value: 0
      objectReference: {fileID: 0}
    - target: {fileID: 8397699897526961637, guid: a8bbe05f24310734da5700943f3421a9,
        type: 3}
      propertyPath: m_LocalRotation.y
      value: 0
      objectReference: {fileID: 0}
    - target: {fileID: 8397699897526961637, guid: a8bbe05f24310734da5700943f3421a9,
        type: 3}
      propertyPath: m_LocalRotation.z
      value: 0
      objectReference: {fileID: 0}
    - target: {fileID: 8397699897526961637, guid: a8bbe05f24310734da5700943f3421a9,
        type: 3}
      propertyPath: m_LocalEulerAnglesHint.x
      value: 0
      objectReference: {fileID: 0}
    - target: {fileID: 8397699897526961637, guid: a8bbe05f24310734da5700943f3421a9,
        type: 3}
      propertyPath: m_LocalEulerAnglesHint.y
      value: 0
      objectReference: {fileID: 0}
    - target: {fileID: 8397699897526961637, guid: a8bbe05f24310734da5700943f3421a9,
        type: 3}
      propertyPath: m_LocalEulerAnglesHint.z
      value: 0
      objectReference: {fileID: 0}
    m_RemovedComponents: []
  m_SourcePrefab: {fileID: 100100000, guid: a8bbe05f24310734da5700943f3421a9, type: 3}
--- !u!4 &7212494586997379937 stripped
Transform:
  m_CorrespondingSourceObject: {fileID: 8397699897526961637, guid: a8bbe05f24310734da5700943f3421a9,
    type: 3}
  m_PrefabInstance: {fileID: 1197238477453121156}
  m_PrefabAsset: {fileID: 0}
