%YAML 1.1
%TAG !u! tag:unity3d.com,2011:
--- !u!1 &8302867023077444637
GameObject:
  m_ObjectHideFlags: 0
  m_CorrespondingSourceObject: {fileID: 0}
  m_PrefabInstance: {fileID: 0}
  m_PrefabAsset: {fileID: 0}
  serializedVersion: 6
  m_Component:
  - component: {fileID: 1025551476773442209}
  - component: {fileID: 5863396391262334753}
  - component: {fileID: 7935636287233962606}
  - component: {fileID: 726862349183545194}
  - component: {fileID: 789121469390987530}
  m_Layer: 0
  m_Name: Square Long
  m_TagString: Untagged
  m_Icon: {fileID: 0}
  m_NavMeshLayer: 0
  m_StaticEditorFlags: 0
  m_IsActive: 1
--- !u!4 &1025551476773442209
Transform:
  m_ObjectHideFlags: 0
  m_CorrespondingSourceObject: {fileID: 0}
  m_PrefabInstance: {fileID: 0}
  m_PrefabAsset: {fileID: 0}
  m_GameObject: {fileID: 8302867023077444637}
  m_LocalRotation: {x: 0, y: 0, z: 0, w: 1}
  m_LocalPosition: {x: 0, y: -0.5, z: 0}
  m_LocalScale: {x: 1, y: 1, z: 1}
  m_ConstrainProportionsScale: 0
  m_Children: []
  m_Father: {fileID: 1528742009364248798}
  m_RootOrder: 5
  m_LocalEulerAnglesHint: {x: 0, y: 0, z: 0}
--- !u!212 &5863396391262334753
SpriteRenderer:
  m_ObjectHideFlags: 0
  m_CorrespondingSourceObject: {fileID: 0}
  m_PrefabInstance: {fileID: 0}
  m_PrefabAsset: {fileID: 0}
  m_GameObject: {fileID: 8302867023077444637}
  m_Enabled: 1
  m_CastShadows: 0
  m_ReceiveShadows: 0
  m_DynamicOccludee: 1
  m_StaticShadowCaster: 0
  m_MotionVectors: 1
  m_LightProbeUsage: 1
  m_ReflectionProbeUsage: 1
  m_RayTracingMode: 0
  m_RayTraceProcedural: 0
  m_RenderingLayerMask: 1
  m_RendererPriority: 0
  m_Materials:
  - {fileID: 10754, guid: 0000000000000000f000000000000000, type: 0}
  m_StaticBatchInfo:
    firstSubMesh: 0
    subMeshCount: 0
  m_StaticBatchRoot: {fileID: 0}
  m_ProbeAnchor: {fileID: 0}
  m_LightProbeVolumeOverride: {fileID: 0}
  m_ScaleInLightmap: 1
  m_ReceiveGI: 1
  m_PreserveUVs: 0
  m_IgnoreNormalsForChartDetection: 0
  m_ImportantGI: 0
  m_StitchLightmapSeams: 1
  m_SelectedEditorRenderState: 0
  m_MinimumChartSize: 4
  m_AutoUVMaxDistance: 0.5
  m_AutoUVMaxAngle: 89
  m_LightmapParameters: {fileID: 0}
  m_SortingLayerID: 0
  m_SortingLayer: 0
  m_SortingOrder: -2
  m_Sprite: {fileID: 21300000, guid: 5d552bdebc42b534eb96152b0762cf5b, type: 3}
  m_Color: {r: 0.6037736, g: 0.6037736, b: 0.6037736, a: 1}
  m_FlipX: 0
  m_FlipY: 0
  m_DrawMode: 2
  m_Size: {x: 0.8925, y: 1}
  m_AdaptiveModeThreshold: 0.5
  m_SpriteTileMode: 0
  m_WasSpriteAssigned: 1
  m_MaskInteraction: 2
  m_SpriteSortPoint: 0
--- !u!65 &7935636287233962606
BoxCollider:
  m_ObjectHideFlags: 0
  m_CorrespondingSourceObject: {fileID: 0}
  m_PrefabInstance: {fileID: 0}
  m_PrefabAsset: {fileID: 0}
  m_GameObject: {fileID: 8302867023077444637}
  m_Material: {fileID: 0}
  m_IsTrigger: 0
  m_Enabled: 1
  serializedVersion: 2
  m_Size: {x: 0.8924999, y: 0.99999994, z: 0.19999999}
  m_Center: {x: 0, y: 0.5000001, z: 0}
--- !u!114 &726862349183545194
MonoBehaviour:
  m_ObjectHideFlags: 0
  m_CorrespondingSourceObject: {fileID: 0}
  m_PrefabInstance: {fileID: 0}
  m_PrefabAsset: {fileID: 0}
  m_GameObject: {fileID: 8302867023077444637}
  m_Enabled: 1
  m_EditorHideFlags: 0
  m_Script: {fileID: 11500000, guid: 16305883f07991e4da192c69b00bed93, type: 3}
  m_Name: 
  m_EditorClassIdentifier: 
  OnNoteTouchDown:
    m_PersistentCalls:
      m_Calls: []
  OnNoteTouchUp:
    m_PersistentCalls:
      m_Calls: []
  exitedLineArea: 0
--- !u!54 &789121469390987530
Rigidbody:
  m_ObjectHideFlags: 0
  m_CorrespondingSourceObject: {fileID: 0}
  m_PrefabInstance: {fileID: 0}
  m_PrefabAsset: {fileID: 0}
  m_GameObject: {fileID: 8302867023077444637}
  serializedVersion: 2
  m_Mass: 1
  m_Drag: 0
  m_AngularDrag: 0.05
  m_UseGravity: 0
  m_IsKinematic: 1
  m_Interpolate: 0
  m_Constraints: 0
  m_CollisionDetection: 0
--- !u!1001 &7042980359619919163
PrefabInstance:
  m_ObjectHideFlags: 0
  serializedVersion: 2
  m_Modification:
    m_TransformParent: {fileID: 0}
    m_Modifications:
    - target: {fileID: 773763262176415783, guid: a8bbe05f24310734da5700943f3421a9,
        type: 3}
      propertyPath: m_MaskInteraction
      value: 2
      objectReference: {fileID: 0}
    - target: {fileID: 991442613644012448, guid: a8bbe05f24310734da5700943f3421a9,
        type: 3}
      propertyPath: m_MaskInteraction
      value: 2
      objectReference: {fileID: 0}
    - target: {fileID: 1495265756002482516, guid: a8bbe05f24310734da5700943f3421a9,
        type: 3}
      propertyPath: m_MaskInteraction
      value: 2
      objectReference: {fileID: 0}
    - target: {fileID: 8039747320999360517, guid: a8bbe05f24310734da5700943f3421a9,
        type: 3}
      propertyPath: m_MaskInteraction
      value: 2
      objectReference: {fileID: 0}
    - target: {fileID: 8397699897526961635, guid: a8bbe05f24310734da5700943f3421a9,
        type: 3}
      propertyPath: m_Name
      value: Note Long
      objectReference: {fileID: 0}
    - target: {fileID: 8397699897526961636, guid: a8bbe05f24310734da5700943f3421a9,
        type: 3}
      propertyPath: action
      value: 1
      objectReference: {fileID: 0}
    - target: {fileID: 8397699897526961636, guid: a8bbe05f24310734da5700943f3421a9,
        type: 3}
      propertyPath: noTapEffect
      value: 1
      objectReference: {fileID: 0}
    - target: {fileID: 8397699897526961636, guid: a8bbe05f24310734da5700943f3421a9,
        type: 3}
      propertyPath: noteLengthSizeOffset
      value: 0.5
      objectReference: {fileID: 0}
    - target: {fileID: 8397699897526961636, guid: a8bbe05f24310734da5700943f3421a9,
        type: 3}
      propertyPath: applyNoteLenghtTarget
      value: 
      objectReference: {fileID: 5863396391262334753}
    - target: {fileID: 8397699897526961637, guid: a8bbe05f24310734da5700943f3421a9,
        type: 3}
      propertyPath: m_RootOrder
      value: 0
      objectReference: {fileID: 0}
    - target: {fileID: 8397699897526961637, guid: a8bbe05f24310734da5700943f3421a9,
        type: 3}
      propertyPath: m_LocalScale.x
      value: 1
      objectReference: {fileID: 0}
    - target: {fileID: 8397699897526961637, guid: a8bbe05f24310734da5700943f3421a9,
        type: 3}
      propertyPath: m_LocalScale.y
      value: 1
      objectReference: {fileID: 0}
    - target: {fileID: 8397699897526961637, guid: a8bbe05f24310734da5700943f3421a9,
        type: 3}
      propertyPath: m_LocalScale.z
      value: 1
      objectReference: {fileID: 0}
    - target: {fileID: 8397699897526961637, guid: a8bbe05f24310734da5700943f3421a9,
        type: 3}
      propertyPath: m_LocalPosition.x
      value: 1.865
      objectReference: {fileID: 0}
    - target: {fileID: 8397699897526961637, guid: a8bbe05f24310734da5700943f3421a9,
        type: 3}
      propertyPath: m_LocalPosition.y
      value: -0.568
      objectReference: {fileID: 0}
    - target: {fileID: 8397699897526961637, guid: a8bbe05f24310734da5700943f3421a9,
        type: 3}
      propertyPath: m_LocalPosition.z
      value: 0
      objectReference: {fileID: 0}
    - target: {fileID: 8397699897526961637, guid: a8bbe05f24310734da5700943f3421a9,
        type: 3}
      propertyPath: m_LocalRotation.w
      value: 1
      objectReference: {fileID: 0}
    - target: {fileID: 8397699897526961637, guid: a8bbe05f24310734da5700943f3421a9,
        type: 3}
      propertyPath: m_LocalRotation.x
      value: 0
      objectReference: {fileID: 0}
    - target: {fileID: 8397699897526961637, guid: a8bbe05f24310734da5700943f3421a9,
        type: 3}
      propertyPath: m_LocalRotation.y
      value: 0
      objectReference: {fileID: 0}
    - target: {fileID: 8397699897526961637, guid: a8bbe05f24310734da5700943f3421a9,
        type: 3}
      propertyPath: m_LocalRotation.z
      value: 0
      objectReference: {fileID: 0}
    - target: {fileID: 8397699897526961637, guid: a8bbe05f24310734da5700943f3421a9,
        type: 3}
      propertyPath: m_LocalEulerAnglesHint.x
      value: 0
      objectReference: {fileID: 0}
    - target: {fileID: 8397699897526961637, guid: a8bbe05f24310734da5700943f3421a9,
        type: 3}
      propertyPath: m_LocalEulerAnglesHint.y
      value: 0
      objectReference: {fileID: 0}
    - target: {fileID: 8397699897526961637, guid: a8bbe05f24310734da5700943f3421a9,
        type: 3}
      propertyPath: m_LocalEulerAnglesHint.z
      value: 0
      objectReference: {fileID: 0}
    m_RemovedComponents: []
  m_SourcePrefab: {fileID: 100100000, guid: a8bbe05f24310734da5700943f3421a9, type: 3}
--- !u!4 &1528742009364248798 stripped
Transform:
  m_CorrespondingSourceObject: {fileID: 8397699897526961637, guid: a8bbe05f24310734da5700943f3421a9,
    type: 3}
  m_PrefabInstance: {fileID: 7042980359619919163}
  m_PrefabAsset: {fileID: 0}
