{
    "name": "Keyboard Controls 1",
    "maps": [
        {
            "name": "Primary",
            "id": "46bfb42f-e8c8-4d86-962a-fbbe5cb3a9d5",
            "actions": [
                {
                    "name": "Track 0",
                    "type": "Button",
                    "id": "cbc8470d-a28d-47c5-9620-07df911c9925",
                    "expectedControlType": "Button",
                    "processors": "",
                    "interactions": "",
                    "initialStateCheck": false
                },
                {
                    "name": "Track 1",
                    "type": "Button",
                    "id": "a5d0ca8b-78a4-4558-bc0c-e94f1433ce2e",
                    "expectedControlType": "Button",
                    "processors": "",
                    "interactions": "",
                    "initialStateCheck": false
                },
                {
                    "name": "Track 2",
                    "type": "Button",
                    "id": "da8b0aee-eb5a-4744-98c2-f24decb74db5",
                    "expectedControlType": "Button",
                    "processors": "",
                    "interactions": "",
                    "initialStateCheck": false
                },
                {
                    "name": "Track 3",
                    "type": "Button",
                    "id": "08288e50-818d-48b2-9e34-d459ee41d066",
                    "expectedControlType": "Button",
                    "processors": "",
                    "interactions": "",
                    "initialStateCheck": false
                },
                {
                    "name": "Up",
                    "type": "Button",
                    "id": "70207fe8-3078-42ce-a4d7-ca42f9651d9c",
                    "expectedControlType": "Button",
                    "processors": "",
                    "interactions": "",
                    "initialStateCheck": false
                },
                {
                    "name": "Down",
                    "type": "Button",
                    "id": "08743578-7126-49b7-bf50-7b0d6b070553",
                    "expectedControlType": "Button",
                    "processors": "",
                    "interactions": "",
                    "initialStateCheck": false
                },
                {
                    "name": "Left",
                    "type": "Button",
                    "id": "1d7107e8-2a7c-4b79-b93f-edd05a0f6a7e",
                    "expectedControlType": "Button",
                    "processors": "",
                    "interactions": "",
                    "initialStateCheck": false
                },
                {
                    "name": "Right",
                    "type": "Button",
                    "id": "d55283a2-0404-4f54-a730-bbe47c7178c7",
                    "expectedControlType": "Button",
                    "processors": "",
                    "interactions": "",
                    "initialStateCheck": false
                }
            ],
            "bindings": [
                {
                    "name": "",
                    "id": "071b6574-21a2-4b07-ad29-d4b77b55bc03",
                    "path": "<Keyboard>/q",
                    "interactions": "",
                    "processors": "",
                    "groups": "",
                    "action": "Track 0",
                    "isComposite": false,
                    "isPartOfComposite": false
                },
                {
                    "name": "",
                    "id": "17fa3014-dca3-4f8d-b290-43e2642fe29a",
                    "path": "<MidiDevice>/note036",
                    "interactions": "",
                    "processors": "",
                    "groups": "",
                    "action": "Track 0",
                    "isComposite": false,
                    "isPartOfComposite": false
                },
                {
                    "name": "",
                    "id": "a6b1c362-901c-4d98-a52f-ae2dc520443c",
                    "path": "<Keyboard>/w",
                    "interactions": "",
                    "processors": "",
                    "groups": "",
                    "action": "Track 1",
                    "isComposite": false,
                    "isPartOfComposite": false
                },
                {
                    "name": "",
                    "id": "73585ae6-8b8d-4a14-b49b-179f6faac16a",
                    "path": "<MidiDevice>/note038",
                    "interactions": "",
                    "processors": "",
                    "groups": "",
                    "action": "Track 1",
                    "isComposite": false,
                    "isPartOfComposite": false
                },
                {
                    "name": "",
                    "id": "33596dcc-43c0-4d05-9e76-237256045bbb",
                    "path": "<Keyboard>/e",
                    "interactions": "",
                    "processors": "",
                    "groups": "",
                    "action": "Track 2",
                    "isComposite": false,
                    "isPartOfComposite": false
                },
                {
                    "name": "",
                    "id": "e9af84c1-7a1f-4105-9d7c-090e4726b95b",
                    "path": "<MidiDevice>/note040",
                    "interactions": "",
                    "processors": "",
                    "groups": "",
                    "action": "Track 2",
                    "isComposite": false,
                    "isPartOfComposite": false
                },
                {
                    "name": "",
                    "id": "cb0238dd-e86b-438e-9feb-9e08f7daf768",
                    "path": "<Keyboard>/r",
                    "interactions": "",
                    "processors": "",
                    "groups": "",
                    "action": "Track 3",
                    "isComposite": false,
                    "isPartOfComposite": false
                },
                {
                    "name": "",
                    "id": "c38ed9f5-ecf9-43fe-acb6-31ae5e675622",
                    "path": "<MidiDevice>/note041",
                    "interactions": "",
                    "processors": "",
                    "groups": "",
                    "action": "Track 3",
                    "isComposite": false,
                    "isPartOfComposite": false
                },
                {
                    "name": "",
                    "id": "f33eb8f7-449d-41a0-9a19-5425f88d39ed",
                    "path": "<Keyboard>/upArrow",
                    "interactions": "",
                    "processors": "",
                    "groups": "",
                    "action": "Up",
                    "isComposite": false,
                    "isPartOfComposite": false
                },
                {
                    "name": "",
                    "id": "a163a693-ed1d-4fe2-814e-bf765823033b",
                    "path": "<Keyboard>/downArrow",
                    "interactions": "",
                    "processors": "",
                    "groups": "",
                    "action": "Down",
                    "isComposite": false,
                    "isPartOfComposite": false
                },
                {
                    "name": "",
                    "id": "43c01823-cd08-4f0c-87dc-bb03ed5798ee",
                    "path": "<Keyboard>/leftArrow",
                    "interactions": "",
                    "processors": "",
                    "groups": "",
                    "action": "Left",
                    "isComposite": false,
                    "isPartOfComposite": false
                },
                {
                    "name": "",
                    "id": "b068bf12-c9c1-4e43-9854-5ca25379d8a2",
                    "path": "<Keyboard>/rightArrow",
                    "interactions": "",
                    "processors": "",
                    "groups": "",
                    "action": "Right",
                    "isComposite": false,
                    "isPartOfComposite": false
                }
            ]
        }
    ],
    "controlSchemes": []
}