%YAML 1.1
%TAG !u! tag:unity3d.com,2011:
--- !u!114 &11400000
MonoBehaviour:
  m_ObjectHideFlags: 0
  m_CorrespondingSourceObject: {fileID: 0}
  m_PrefabInstance: {fileID: 0}
  m_PrefabAsset: {fileID: 0}
  m_GameObject: {fileID: 0}
  m_Enabled: 1
  m_EditorHideFlags: 0
  m_Script: {fileID: 11500000, guid: 5c9aee7e548d5de44a366308702e981a, type: 3}
  m_Name: X111
  m_EditorClassIdentifier: 
  clip: {fileID: 0}
  length: 0
  author: 
  bpm: 100
  hand: 
  metadata:
    values: []
  useCurrentBpmMidiImport: 0
  notes:
  - noteName: 0
    noteOctave: 5
    time: 2.4
    noteLength: 0.45
    beatIndex: 4
    beatLengthIndex: 0.75
  - noteName: 0
    noteOctave: 6
    time: 2.4
    noteLength: 0.45
    beatIndex: 4
    beatLengthIndex: 0.75
  - noteName: 4
    noteOctave: 6
    time: 3
    noteLength: 0.45
    beatIndex: 5
    beatLengthIndex: 0.75
  - noteName: 0
    noteOctave: 5
    time: 3
    noteLength: 0.45
    beatIndex: 5
    beatLengthIndex: 0.75
  - noteName: 7
    noteOctave: 6
    time: 3
    noteLength: 0.45
    beatIndex: 5
    beatLengthIndex: 0.75
  - noteName: 0
    noteOctave: 5
    time: 3.6
    noteLength: 0.9
    beatIndex: 6
    beatLengthIndex: 1.5
  - noteName: 7
    noteOctave: 6
    time: 3.6
    noteLength: 0.45
    beatIndex: 6
    beatLengthIndex: 0.75
  - noteName: 4
    noteOctave: 6
    time: 3.6
    noteLength: 0.45
    beatIndex: 6
    beatLengthIndex: 0.75
  - noteName: 7
    noteOctave: 6
    time: 4.2
    noteLength: 0.45
    beatIndex: 7
    beatLengthIndex: 0.75
  - noteName: 4
    noteOctave: 6
    time: 4.2
    noteLength: 0.45
    beatIndex: 7
    beatLengthIndex: 0.75
  - noteName: 0
    noteOctave: 6
    time: 4.8
    noteLength: 0.45
    beatIndex: 8
    beatLengthIndex: 0.75
  - noteName: 0
    noteOctave: 5
    time: 4.8
    noteLength: 0.45
    beatIndex: 8
    beatLengthIndex: 0.75
  - noteName: 0
    noteOctave: 5
    time: 5.4
    noteLength: 0.45
    beatIndex: 9
    beatLengthIndex: 0.75
  - noteName: 4
    noteOctave: 6
    time: 5.4
    noteLength: 0.45
    beatIndex: 9
    beatLengthIndex: 0.75
  - noteName: 7
    noteOctave: 6
    time: 5.4
    noteLength: 0.45
    beatIndex: 9
    beatLengthIndex: 0.75
  - noteName: 4
    noteOctave: 6
    time: 6
    noteLength: 0.45
    beatIndex: 10
    beatLengthIndex: 0.75
  - noteName: 7
    noteOctave: 6
    time: 6
    noteLength: 0.45
    beatIndex: 10
    beatLengthIndex: 0.75
  - noteName: 0
    noteOctave: 5
    time: 6
    noteLength: 0.9
    beatIndex: 10
    beatLengthIndex: 1.5
  - noteName: 4
    noteOctave: 6
    time: 6.6
    noteLength: 0.45
    beatIndex: 11
    beatLengthIndex: 0.75
  - noteName: 7
    noteOctave: 6
    time: 6.6
    noteLength: 0.45
    beatIndex: 11
    beatLengthIndex: 0.75
  - noteName: 0
    noteOctave: 6
    time: 7.2
    noteLength: 0.45
    beatIndex: 12
    beatLengthIndex: 0.75
  - noteName: 0
    noteOctave: 5
    time: 7.2
    noteLength: 0.45
    beatIndex: 12
    beatLengthIndex: 0.75
  - noteName: 0
    noteOctave: 5
    time: 7.8
    noteLength: 0.45
    beatIndex: 13
    beatLengthIndex: 0.75
  - noteName: 7
    noteOctave: 6
    time: 7.8
    noteLength: 0.45
    beatIndex: 13
    beatLengthIndex: 0.75
  - noteName: 4
    noteOctave: 6
    time: 7.8
    noteLength: 0.45
    beatIndex: 13
    beatLengthIndex: 0.75
  - noteName: 0
    noteOctave: 5
    time: 8.4
    noteLength: 0.45
    beatIndex: 14
    beatLengthIndex: 0.75
  - noteName: 0
    noteOctave: 6
    time: 8.4
    noteLength: 0.45
    beatIndex: 14
    beatLengthIndex: 0.75
  - noteName: 0
    noteOctave: 5
    time: 9
    noteLength: 0.45
    beatIndex: 15
    beatLengthIndex: 0.75
  - noteName: 7
    noteOctave: 6
    time: 9
    noteLength: 0.45
    beatIndex: 15
    beatLengthIndex: 0.75
  - noteName: 4
    noteOctave: 6
    time: 9
    noteLength: 0.45
    beatIndex: 15
    beatLengthIndex: 0.75
  - noteName: 0
    noteOctave: 5
    time: 9.6
    noteLength: 0.45
    beatIndex: 16
    beatLengthIndex: 0.75
  - noteName: 0
    noteOctave: 6
    time: 9.6
    noteLength: 0.45
    beatIndex: 16
    beatLengthIndex: 0.75
  - noteName: 4
    noteOctave: 6
    time: 10.2
    noteLength: 0.45
    beatIndex: 17
    beatLengthIndex: 0.75
  - noteName: 7
    noteOctave: 6
    time: 10.2
    noteLength: 0.45
    beatIndex: 17
    beatLengthIndex: 0.75
  - noteName: 0
    noteOctave: 5
    time: 10.2
    noteLength: 0.45
    beatIndex: 17
    beatLengthIndex: 0.75
  - noteName: 0
    noteOctave: 5
    time: 10.8
    noteLength: 2.4
    beatIndex: 18
    beatLengthIndex: 4
  - noteName: 0
    noteOctave: 6
    time: 10.8
    noteLength: 2.4
    beatIndex: 18
    beatLengthIndex: 4
  - noteName: 4
    noteOctave: 6
    time: 10.8
    noteLength: 2.4
    beatIndex: 18
    beatLengthIndex: 4
  - noteName: 7
    noteOctave: 6
    time: 10.8
    noteLength: 2.4
    beatIndex: 18
    beatLengthIndex: 4
  useGenetator: 0
  runtimeGenerate: 0
  generator: {fileID: 0}
  onsetSensitivity: 1
  onsetData: []
  onsetMin: 0
  onsetMax: 0
